<svg xmlns="http://www.w3.org/2000/svg" width="58.4" height="34.812" viewBox="0 0 58.4 34.812">
  <path id="Path_9" data-name="Path 9" d="M29.2,98.725c-11.158,0-21.277,6.1-28.743,16.02a2.312,2.312,0,0,0,0,2.76c7.467,9.927,17.585,16.032,28.743,16.032s21.277-6.1,28.743-16.02a2.312,2.312,0,0,0,0-2.76C50.477,104.83,40.358,98.725,29.2,98.725Zm.8,29.663a12.283,12.283,0,1,1,11.457-11.457A12.29,12.29,0,0,1,30,128.388Zm-.37-5.663a6.614,6.614,0,1,1,6.176-6.176A6.6,6.6,0,0,1,29.63,122.725Z" transform="translate(0 -98.725)" fill="#474444"/>
</svg>
